module route256.ozon.ru/project/loms

go 1.22.0

require (
	github.com/envoyproxy/protoc-gen-validate v1.0.4
	github.com/gojuno/minimock/v3 v3.3.6
	github.com/grpc-ecosystem/grpc-gateway/v2 v2.19.1
	github.com/stretchr/testify v1.9.0
	google.golang.org/genproto/googleapis/api v0.0.0-20240125205218-1f4bbc51befe
	google.golang.org/grpc v1.62.1
	google.golang.org/protobuf v1.33.0
)

require (
	dario.cat/mergo v1.0.0 // indirect
	github.com/Azure/go-ansiterm v0.0.0-20230124172434-306776ec8161 // indirect
	github.com/Microsoft/go-winio v0.6.1 // indirect
	github.com/Microsoft/hcsshim v0.11.4 // indirect
	github.com/cenkalti/backoff/v4 v4.2.1 // indirect
	github.com/containerd/containerd v1.7.12 // indirect
	github.com/containerd/log v0.1.0 // indirect
	github.com/cpuguy83/dockercfg v0.3.1 // indirect
	github.com/davecgh/go-spew v1.1.1 // indirect
	github.com/distribution/reference v0.5.0 // indirect
	github.com/docker/docker v25.0.3+incompatible // indirect
	github.com/docker/go-connections v0.5.0 // indirect
	github.com/docker/go-units v0.5.0 // indirect
	github.com/felixge/httpsnoop v1.0.3 // indirect
	github.com/go-logr/logr v1.3.0 // indirect
	github.com/go-logr/stdr v1.2.2 // indirect
	github.com/go-ole/go-ole v1.2.6 // indirect
	github.com/gogo/protobuf v1.3.2 // indirect
	github.com/golang/protobuf v1.5.3 // indirect
	github.com/google/uuid v1.6.0 // indirect
	github.com/jackc/pgpassfile v1.0.0 // indirect
	github.com/jackc/pgservicefile v0.0.0-20221227161230-091c0ba34f0a // indirect
	github.com/jackc/pgx/v5 v5.5.5 // indirect
	github.com/jackc/puddle/v2 v2.2.1 // indirect
	github.com/klauspost/compress v1.17.2 // indirect
	github.com/lib/pq v1.10.9 // indirect
	github.com/lufia/plan9stats v0.0.0-20211012122336-39d0f177ccd0 // indirect
	github.com/magiconair/properties v1.8.7 // indirect
	github.com/mfridman/interpolate v0.0.2 // indirect
	github.com/moby/patternmatcher v0.6.0 // indirect
	github.com/moby/sys/sequential v0.5.0 // indirect
	github.com/moby/sys/user v0.1.0 // indirect
	github.com/moby/term v0.5.0 // indirect
	github.com/morikuni/aec v1.0.0 // indirect
	github.com/opencontainers/go-digest v1.0.0 // indirect
	github.com/opencontainers/image-spec v1.1.0 // indirect
	github.com/pkg/errors v0.9.1 // indirect
	github.com/pmezard/go-difflib v1.0.0 // indirect
	github.com/power-devops/perfstat v0.0.0-20210106213030-5aafc221ea8c // indirect
	github.com/pressly/goose v2.7.0+incompatible // indirect
	github.com/pressly/goose/v3 v3.19.2 // indirect
	github.com/rogpeppe/go-internal v1.12.0 // indirect
	github.com/sethvargo/go-retry v0.2.4 // indirect
	github.com/shirou/gopsutil/v3 v3.23.12 // indirect
	github.com/shoenig/go-m1cpu v0.1.6 // indirect
	github.com/sirupsen/logrus v1.9.3 // indirect
	github.com/spf13/pflag v1.0.5 // indirect
	github.com/testcontainers/testcontainers-go v0.29.1 // indirect
	github.com/tklauser/go-sysconf v0.3.12 // indirect
	github.com/tklauser/numcpus v0.6.1 // indirect
	github.com/yusufpapurcu/wmi v1.2.3 // indirect
	go.opentelemetry.io/contrib/instrumentation/net/http/otelhttp v0.45.0 // indirect
	go.opentelemetry.io/otel v1.20.0 // indirect
	go.opentelemetry.io/otel/metric v1.20.0 // indirect
	go.opentelemetry.io/otel/trace v1.20.0 // indirect
	go.uber.org/multierr v1.11.0 // indirect
	golang.org/x/crypto v0.18.0 // indirect
	golang.org/x/exp v0.0.0-20231108232855-2478ac86f678 // indirect
	golang.org/x/mod v0.16.0 // indirect
	golang.org/x/net v0.20.0 // indirect
	golang.org/x/sync v0.6.0 // indirect
	golang.org/x/sys v0.16.0 // indirect
	golang.org/x/text v0.14.0 // indirect
	golang.org/x/tools v0.17.0 // indirect
	google.golang.org/genproto v0.0.0-20240123012728-ef4313101c80 // indirect
	google.golang.org/genproto/googleapis/rpc v0.0.0-20240125205218-1f4bbc51befe // indirect
	gopkg.in/yaml.v3 v3.0.1 // indirect
)
